3 Tutorial 3: Deep neural network with explainable method (binary classification) – The R torch codebook
…
Warning: `as_data_frame()` was deprecated in tibble 2.0.0.
ℹ Please use `as_tibble()` (with slightly different semantics) to convert to a
  tibble, or `as.data.frame()` to convert to a data frame.

Warning: The `x` argument of `as_tibble.matrix()` must have unique column names if
`.name_repair` is omitted as of tibble 2.0.0.
ℹ Using compatibility `.name_repair`.
ℹ The deprecated feature was likely used in the tibble package.
  Please report the issue at <https://github.com/tidyverse/tibble/issues>.

dat_pred

# A tibble: 185 × 3
     prob pred  true 
    <dbl> <fct> <fct>
 1 0.0886 0     0    
 2 0.326  0     0    
 3 0.0819 0     0    
 4 0.957  1     1    
 5 0.0911 0     0    
 6 0.182  0     0    
 7 0.311  0     0    
 8 0.383  0     0    
 9 0.871  1     0    
10 0.102  0     1    
# ℹ 175 more rows
…
